<svg xmlns="http://www.w3.org/2000/svg" viewBox="0 0 29.5 29.5">
  <defs>
    <style>
      .a {
        fill: #ecae43;
      }

      .b {
        fill: #231815;
      }
    </style>
  </defs>
  <title>icon-pro-note</title>
  <g>
    <circle class="a" cx="14.75" cy="14.75" r="14.75"/>
    <g>
      <rect class="b" x="10.04" y="17.42" width="6.53" height="0.62"/>
      <rect class="b" x="10.04" y="14.89" width="6.53" height="0.62"/>
      <rect class="b" x="10.04" y="12.36" width="6.53" height="0.62"/>
      <rect class="b" x="13.49" y="9.83" width="3.08" height="0.62"/>
      <path class="b" d="M19.09,19.46v-12a1.64,1.64,0,0,0,0-.22,1.34,1.34,0,0,0-1.32-1.11h-5.4a1.5,1.5,0,0,0-1,.43L8,10a1.45,1.45,0,0,0-.42,1v8.48a1.33,1.33,0,0,0,1.33,1.33h8.89A1.34,1.34,0,0,0,19.09,19.46ZM11.88,7.08v3c0,.32-.12.45-.45.45h-3ZM8.27,19.46V11.18h3.56a.73.73,0,0,0,.33-.08.67.67,0,0,0,.31-.31.72.72,0,0,0,.08-.32V6.9h5.2a.59.59,0,0,1,.54.36.54.54,0,0,1,.05.22v12a.59.59,0,0,1-.59.58H8.86A.59.59,0,0,1,8.27,19.46Z"/>
      <path class="b" d="M20.64,8.71h-.9l.05.75h.85a.59.59,0,0,1,.59.58V22a.59.59,0,0,1-.59.58H11.75a.59.59,0,0,1-.54-.36.54.54,0,0,1-.05-.22V21.5h-.74V22a.82.82,0,0,0,0,.22,1.32,1.32,0,0,0,1.31,1.11h8.89A1.33,1.33,0,0,0,22,22V10A1.33,1.33,0,0,0,20.64,8.71Z"/>
    </g>
  </g>
</svg>
