<?xml version="1.0" encoding="utf-8"?>
<!-- Generator: Adobe Illustrator 21.0.2, SVG Export Plug-In . SVG Version: 6.00 Build 0)  -->
<svg version="1.1" id="レイヤー_1" xmlns="http://www.w3.org/2000/svg" xmlns:xlink="http://www.w3.org/1999/xlink" x="0px"
	 y="0px" viewBox="0 0 263 202" style="enable-background:new 0 0 263 202;" xml:space="preserve">
<style type="text/css">
	.st0{fill:#D4D4D2;}
</style>
<g>
	<polygon class="st0" points="13.5,167 0,176 0,202 263,202 263,0 249.5,11.5 249.5,190.5 13.5,189.5 	"/>
</g>
</svg>
